open;high;low;close;volume
5.7;5.72;5.63;5.66;6698997
5.71;5.77;5.69;5.76;5520530
5.74;5.77;5.73;5.74;4781140
5.79;5.89;5.79;5.87;8347763
5.83;5.84;5.78;5.83;8230077
5.76;5.77;5.7;5.7;13606169
5.54;5.69;5.53;5.68;18320719
5.63;5.64;5.55;5.6;18870443
5.55;5.585;5.49;5.5;22157654
5.46;5.56;5.45;5.56;15616128
5.43;5.48;5.4;5.47;14984867
5.52;5.55;5.49;5.51;5608365
5.52;5.52;5.47;5.5;5179828
5.53;5.58;5.5;5.58;8012303
5.74;5.75;5.71;5.74;14045066
5.65;5.7;5.64;5.66;7359621
5.61;5.65;5.61;5.62;5833888
5.58;5.72;5.58;5.71;6159134
5.73;5.75;5.68;5.74;5129983
5.75;5.79;5.7;5.72;5827592
5.76;5.83;5.75;5.79;8956896
5.77;5.79;5.75;5.75;5647890
5.78;5.83;5.74;5.78;5806067
5.77;5.77;5.69;5.71;13053176
5.59;5.59;5.52;5.54;18095409
5.41;5.5;5.41;5.49;13812856
5.5;5.56;5.49;5.53;9067722
5.48;5.48;5.365;5.39;13911115
5.15;5.175;5.09;5.09;32049592
4.96;4.96;4.88;4.94;23210817
4.99;5.04;4.95;4.95;8422085
4.96;4.99;4.94;4.97;6319459
5.01;5.04;4.98;5.02;8454966
4.99;4.99;4.95;4.98;5479864
4.97;5.02;4.97;5.0;6489166
4.94;4.95;4.9;4.92;10177126
4.96;4.99;4.95;4.97;5761599
4.93;4.98;4.92;4.97;9113229
5.07;5.2;5.07;5.16;16725644
4.79;4.79;4.71;4.73;36409607
4.57;4.615;4.54;4.56;27200180
4.52;4.53;4.47;4.48;14435652
4.45;4.47;4.4;4.44;21474034
4.43;4.48;4.41;4.44;11712392
4.43;4.45;4.38;4.39;16908978
4.32;4.34;4.3;4.31;12419924
4.48;4.49;4.39;4.44;19614561
4.42;4.45;4.37;4.44;10485107
4.36;4.46;4.35;4.45;11165456
4.48;4.53;4.45;4.49;11349574
4.43;4.45;4.36;4.42;11802611
4.32;4.33;4.28;4.31;12622853
4.07;4.15;4.04;4.14;33821934
4.1;4.16;4.1;4.12;13836599
4.19;4.22;4.14;4.15;10611554
4.2;4.21;4.15;4.16;6631697
4.16;4.18;4.14;4.17;6049499
4.17;4.2;4.16;4.19;7697022
4.15;4.2;4.13;4.19;6471780
4.34;4.36;4.31;4.33;8090037
4.28;4.29;4.24;4.26;8120757
4.27;4.31;4.26;4.29;6298845
4.32;4.33;4.29;4.3;10212947
4.3;4.31;4.25;4.25;7047430
4.23;4.26;4.2;4.23;6893718
4.33;4.51;4.32;4.51;18420977
4.54;4.6;4.51;4.57;18245344
4.62;4.73;4.61;4.7;17711601
4.63;4.65;4.56;4.58;22302188
4.6;4.65;4.58;4.62;12020369
4.61;4.67;4.6;4.63;15823090
4.7;4.79;4.7;4.74;12149088
4.74;4.8;4.7;4.7;15086066
4.71;4.77;4.68;4.72;13169373
4.86;4.93;4.84;4.88;13242339
4.93;4.94;4.87;4.89;13690184
4.88;4.92;4.86;4.9;16273297
4.96;4.99;4.67;4.76;29817601
4.75;4.76;4.705;4.72;9596332
4.84;4.89;4.83;4.88;9611842
4.92;4.93;4.9;4.91;6461768
4.86;4.86;4.78;4.8;7878289
4.84;4.865;4.8;4.83;8880254
4.87;4.88;4.78;4.81;12208458
4.76;4.79;4.75;4.77;7883004
4.8;4.85;4.79;4.84;10247111
4.85;4.92;4.83;4.9;9878417
4.93;4.99;4.9;4.92;18078770
4.86;4.88;4.78;4.83;14555127
4.85;4.86;4.81;4.84;7725090
4.78;4.78;4.74;4.78;8978150
4.7;4.71;4.66;4.7;15366533
4.77;4.8;4.71;4.75;17246229
4.75;4.77;4.7;4.74;9241387
4.69;4.74;4.68;4.69;6642668
4.7;4.74;4.7;4.74;7660747
4.75;4.77;4.71;4.76;6356085
4.68;4.68;4.62;4.68;8762973
4.62;4.69;4.6;4.67;21812511
4.59;4.63;4.58;4.62;18014423
4.75;4.77;4.68;4.72;14585060
4.63;4.67;4.61;4.64;11951554
4.57;4.58;4.51;4.54;17068407
4.55;4.56;4.5;4.52;9486320
4.54;4.59;4.52;4.57;10438836
4.82;4.89;4.77;4.82;44650804
4.83;4.85;4.79;4.83;11863121
4.76;4.78;4.73;4.75;13365337
4.88;4.89;4.84;4.86;11131476
4.89;4.915;4.86;4.88;8520671
4.93;4.94;4.88;4.89;12750791
4.89;4.91;4.86;4.88;6968624
4.94;5.0;4.93;4.96;15403788
4.97;4.99;4.95;4.97;7871365
4.96;5.01;4.95;5.0;12330396
5.05;5.09;5.04;5.07;14644480
5.01;5.05;4.99;5.05;7214647
5.03;5.09;5.03;5.09;15021213
5.03;5.11;5.0116;5.1;16664985
5.15;5.21;5.11;5.15;21960692
5.1;5.18;5.09;5.14;11574417
5.16;5.205;5.14;5.18;11384923
5.13;5.18;5.12;5.14;9258729
5.17;5.29;5.17;5.26;20319322
5.21;5.25;5.2;5.22;19057182
5.26;5.29;5.23;5.28;12001343
5.29;5.3;5.26;5.28;7382061
5.23;5.25;5.21;5.23;8366745
5.19;5.22;5.16;5.18;8487396
5.26;5.29;5.25;5.28;6879582
5.33;5.38;5.32;5.37;9750422
5.35;5.37;5.34;5.36;6772675
5.34;5.34;5.3;5.34;4769877
5.32;5.39;5.3;5.37;8469549
5.41;5.48;5.41;5.45;10506252
5.49;5.5;5.45;5.46;9137340
5.53;5.57;5.5;5.54;18719839
5.54;5.56;5.4;5.4;18328892
5.35;5.39;5.3;5.39;14704001
5.35;5.41;5.33;5.38;7050670
5.37;5.41;5.35;5.37;7708597
5.42;5.5;5.4101;5.46;11703193
5.42;5.45;5.37;5.4;14205669
5.35;5.38;5.33;5.36;10611212
5.33;5.38;5.32;5.33;8437853
5.36;5.43;5.35;5.42;8723607
5.38;5.38;5.28;5.33;8906437
5.3;5.36;5.29;5.36;8675289
5.28;5.29;5.18;5.18;14430842
5.23;5.29;5.22;5.23;10637633
5.26;5.31;5.25;5.28;5663239
5.32;5.35;5.295;5.31;6250937
5.27;5.3;5.211;5.27;8194725
5.29;5.31;5.25;5.28;10324525
5.26;5.29;5.22;5.22;7600357
5.23;5.29;5.23;5.26;3136272
5.24;5.26;5.19;5.23;6489946
5.22;5.235;5.17;5.17;11528578
5.29;5.33;5.25;5.27;20536768
5.24;5.24;5.17;5.22;14190240
5.42;5.42;5.35;5.38;27273168
5.44;5.455;5.4;5.43;23616483
5.4;5.44;5.36;5.37;23249390
5.7;5.78;5.59;5.72;62358461
5.76;5.78;5.67;5.73;30801494
5.74;5.77;5.72;5.77;11869568
5.84;5.87;5.82;5.84;26115604
5.86;6.0;5.84;5.88;13686869
5.97;6.03;5.97;6.03;19677737
6.11;6.19;6.09;6.18;30516443
6.08;6.15;6.07;6.13;19731484
6.14;6.19;6.13;6.18;17102592
6.09;6.15;6.07;6.14;22213769
6.14;6.16;6.05;6.12;16353850
6.17;6.19;6.15;6.17;8923354
6.23;6.26;6.21;6.21;11908903
6.28;6.31;6.25;6.28;11789753
6.22;6.23;6.1;6.11;17810496
6.09;6.17;6.06;6.11;22597918
6.18;6.23;6.17;6.18;15209955
6.21;6.24;6.16;6.21;21738833
6.64;6.65;6.48;6.54;40443333
6.43;6.456;6.345;6.39;31002248
6.37;6.43;6.36;6.4;17938951
6.39;6.42;6.37;6.38;11264076
6.32;6.35;6.285;6.34;16104369
6.4;6.42;6.28;6.32;19869887
6.44;6.54;6.42;6.49;20838304
6.58;6.595;6.53;6.55;14477706
6.46;6.54;6.45;6.54;13736483
6.43;6.52;6.42;6.46;15317824
6.58;6.59;6.49;6.54;17057966
6.53;6.54;6.47;6.52;13078026
6.5;6.52;6.28;6.4;21430761
6.35;6.385;6.27;6.35;20020548
6.44;6.46;6.38;6.42;12231994
6.48;6.48;6.33;6.38;17573808
6.28;6.36;6.27;6.33;14324636
6.34;6.409;6.32;6.4;11104769
6.42;6.47;6.42;6.46;11765391
6.46;6.47;6.37;6.37;14037799
6.34;6.39;6.33;6.39;13080710
6.39;6.415;6.36;6.38;11325651
6.34;6.41;6.33;6.39;10136443
6.43;6.46;6.34;6.34;14180675
6.29;6.32;6.26;6.28;11388453
6.32;6.36;6.28;6.36;16737784
6.28;6.29;6.1;6.17;21632073
6.17;6.18;6.09;6.16;13375466
6.18;6.21;6.15;6.15;6618108
6.23;6.24;6.18;6.22;14404703
6.12;6.18;6.11;6.14;14174074
6.17;6.26;6.16;6.25;11906710
6.19;6.28;6.19;6.26;10418883
6.2;6.25;6.16;6.24;11783500
6.28;6.38;6.27;6.34;11561522
6.3;6.33;6.27;6.33;10371204
6.27;6.33;6.26;6.33;7725651
6.3;6.3351;6.29;6.31;7178565
6.14;6.18;6.12;6.14;12397376
6.22;6.255;6.1901;6.22;8283563
6.25;6.28;6.205;6.26;9905527
6.21;6.23;6.15;6.2;9102495
6.22;6.24;6.18;6.23;7808378
6.15;6.19;6.13;6.16;12320141
6.18;6.205;6.15;6.17;12337391
6.44;6.48;6.275;6.37;27359828
6.31;6.41;6.28;6.4;17284844
6.38;6.41;6.32;6.39;21628424
6.5;6.55;6.46;6.54;19082333
6.58;6.59;6.51;6.52;9978102
6.55;6.57;6.53;6.54;7391164
6.58;6.59;6.52;6.52;7333586
6.51;6.53;6.475;6.5;8400250
6.5;6.519;6.42;6.44;9149095
6.35;6.38;6.33;6.36;7386569
6.34;6.37;6.25;6.25;11469100
6.24;6.28;6.2;6.26;9597704
6.31;6.34;6.3;6.33;6439973
6.35;6.35;6.3;6.33;5117092
6.35;6.375;6.33;6.36;5496309
6.32;6.34;6.23;6.25;10628100
6.17;6.21;6.13;6.19;10104328
6.17;6.19;6.125;6.15;7115152
6.2;6.24;6.19;6.23;5144024
6.22;6.25;6.19;6.25;9144904
6.19;6.22;6.15;6.16;13842181
6.21;6.25;6.19;6.21;9584011
6.21;6.24;6.195;6.21;6848093
6.14;6.21;6.121;6.2;7420122
6.19;6.19;6.14;6.18;7773246
6.17;6.2;6.14;6.18;7805692
6.26;6.285;6.205;6.22;6045419
6.18;6.19;6.07;6.1;15641950
6.15;6.17;6.11;6.16;9978163
6.25;6.26;6.17;6.19;12460382
6.06;6.07;5.98;5.99;17434250
6.1;6.13;6.05;6.08;11624804
6.11;6.119;6.06;6.09;14846414
6.03;6.04;6.0;6.02;7386750
5.99;6.01;5.97;6.01;7923322
6.19;6.22;6.15;6.16;18842642
6.22;6.26;6.18;6.21;14686741
6.25;6.26;6.2;6.22;13113023
6.24;6.24;6.1;6.18;13618448
6.1;6.12;6.04;6.05;16488950
5.98;6.05;5.97;6.0;14153836
5.99;6.01;5.93;5.93;10402354
5.92;5.97;5.9;5.92;12210842
5.9;5.91;5.83;5.88;12606127
5.91;5.92;5.87;5.9;7993011
5.91;6.0;5.8907;5.98;9594693
5.95;6.01;5.9337;5.98;10977554
6.0;6.0;5.96;5.97;6754455
5.93;5.9399;5.9;5.92;7369799
5.91;5.95;5.9;5.93;6410197
5.89;5.92;5.87;5.91;7151337
5.93;5.95;5.91;5.92;5546386
5.96;5.97;5.87;5.92;13350960
5.89;5.89;5.85;5.88;7702844
5.82;5.86;5.79;5.83;8778233
5.92;5.94;5.9;5.93;10651744
5.91;5.93;5.85;5.87;7181889
5.85;5.86;5.8207;5.83;6370915
5.88;5.89;5.84;5.86;4605802
5.8;5.87;5.79;5.82;6489768
6.02;6.11;6.0;6.08;18361407
6.06;6.075;6.02;6.03;7990811
6.01;6.02;5.97;5.99;5799053
6.0;6.05;5.95;6.05;14481627
4.92;5.0;4.75;4.76;75364383
4.99;5.0;4.82;4.91;43810471
4.83;4.87;4.8;4.82;20413065
4.89;4.9;4.85;4.89;15207895
4.92;5.0;4.91;4.94;15602689
4.99;5.03;4.97;5.03;12914239
4.98;4.98;4.91;4.97;10048228
5.03;5.14;5.03;5.09;21454887
4.95;5.08;4.945;5.05;27925504
5.01;5.05;5.0;5.05;16215094
4.93;4.97;4.92;4.96;18512544
4.91;4.95;4.88;4.91;19810116
4.85;4.89;4.84;4.86;10543259
4.83;4.84;4.79;4.83;8623133
4.85;4.89;4.82;4.84;15281111
4.9;4.95;4.88;4.92;14750077
4.95;4.97;4.91;4.94;8117695
5.01;5.05;4.99;5.01;17628406
5.01;5.07;5.005;5.05;15375605
5.04;5.06;5.02;5.05;7396462
5.1;5.1075;5.06;5.08;3944707
5.01;5.05;5.0;5.01;9255794
5.01;5.07;5.0;5.05;12832253
5.03;5.04;4.96;5.02;21255420
4.98;5.05;4.97;5.01;16616778
4.95;4.97;4.9;4.95;11760079
4.79;4.8;4.73;4.74;18383311
4.76;4.78;4.7;4.7;14754102
4.7;4.7593;4.68;4.72;10902099
4.69;4.72;4.62;4.63;15909655
4.63;4.65;4.61;4.64;9519868
4.6;4.62;4.57;4.58;19692032
4.56;4.57;4.51;4.55;17256661
4.63;4.72;4.6207;4.68;18893662
4.65;4.67;4.61;4.61;7906830
4.64;4.6493;4.575;4.61;19009599
4.68;4.71;4.67;4.69;8308993
4.72;4.73;4.66;4.67;6292196
4.64;4.64;4.6;4.62;11700593
4.7;4.83;4.69;4.79;23144081
4.82;4.83;4.75;4.78;7492329
4.77;4.8;4.74;4.78;7646398
4.72;4.76;4.7;4.73;11006677
4.7;4.73;4.69;4.71;9542033
4.69;4.7;4.66;4.66;10836571
4.72;4.78;4.68;4.76;11234451
4.79;4.83;4.78;4.83;9007171
4.88;4.91;4.86;4.89;9894315
4.87;4.92;4.84;4.92;14411973
4.87;4.89;4.86;4.88;10337377
4.89;4.91;4.87;4.9;8067971
4.83;4.86;4.79;4.85;16296896
4.82;4.83;4.8;4.82;9882335
4.85;4.88;4.82;4.87;7052692
4.97;4.98;4.92;4.96;12399913
4.97;5.0;4.94;4.95;10801709
4.87;4.91;4.82;4.84;16379317
4.9;4.91;4.83;4.84;12564644
4.89;4.92;4.85;4.9;16071223
4.9;4.93;4.9;4.92;6856661
4.9;4.93;4.88;4.91;12963777
4.89;4.89;4.76;4.8;23514102
4.82;4.84;4.77;4.81;21352809
4.9;4.97;4.89;4.96;35356419
4.94;4.96;4.91;4.96;11555891
4.84;4.85;4.75;4.81;26258880
5.35;5.605;5.3;5.4;68413480
5.51;5.529;5.38;5.4;33167169
5.51;5.565;5.29;5.32;38115123
5.39;5.55;5.38;5.51;54179808
5.55;5.61;5.49;5.51;25095055
5.5;5.51;5.35;5.36;26385905
5.44;5.48;5.23;5.4;27551439
5.49;5.54;5.46;5.51;18404698
5.49;5.525;5.48;5.51;13048183
5.48;5.675;5.47;5.65;23128283
5.74;5.76;5.67;5.73;18949133
5.77;5.8;5.72;5.76;19577342
5.74;5.78;5.7;5.73;14894851
5.75;5.81;5.69;5.69;17741427
5.71;5.76;5.685;5.71;13451971
5.71;5.83;5.7;5.8;16355612
5.9;5.94;5.87;5.93;11659957
5.91;5.95;5.86;5.87;17203875
5.88;5.895;5.79;5.8;11084256
5.77;5.85;5.71;5.76;16240935
5.74;5.79;5.68;5.77;11248966
5.78;5.885;5.77;5.85;9389866
5.86;5.88;5.805;5.82;10944710
5.85;5.915;5.82;5.88;13858090
5.92;5.96;5.83;5.87;10851269
5.88;5.94;5.865;5.89;7642501
5.9;5.94;5.9;5.93;7853282
5.93;5.94;5.84;5.86;11581747
5.87;5.88;5.78;5.82;17243599
5.8;5.82;5.74;5.76;13826789
5.76;5.79;5.71;5.73;10492270
5.74;5.76;5.6901;5.72;13239111
5.73;5.79;5.71;5.75;10605113
5.7;5.725;5.66;5.71;21324189
5.55;5.59;5.5;5.5;14228582
5.58;5.595;5.44;5.46;17117654
5.54;5.55;5.44;5.54;14440623
5.53;5.55;5.41;5.44;16561819
5.43;5.48;5.395;5.43;19071569
5.47;5.51;5.45;5.47;11064452
5.45;5.47;5.34;5.39;9028549
5.41;5.44;5.38;5.42;11824106
5.33;5.44;5.32;5.43;11376950
5.48;5.5;5.41;5.41;11591678
5.45;5.5;5.36;5.39;13610066
5.45;5.49;5.41;5.41;8937089
5.53;5.55;5.48;5.52;18625712
5.53;5.64;5.53;5.57;14004500
5.58;5.6;5.55;5.56;11087103
5.53;5.56;5.49;5.52;8669954
5.58;5.66;5.54;5.61;12230913
5.77;5.88;5.73;5.86;24856880
5.87;5.89;5.83;5.85;7309797
5.84;5.87;5.82;5.83;10763386
6.05;6.11;5.93;5.96;24388336
5.93;5.94;5.86;5.89;11420962
5.92;5.96;5.87;5.93;13294373
6.01;6.02;5.9;5.92;26474785
5.86;5.98;5.83;5.87;44361209
5.93;6.01;5.93;5.96;18985661
5.98;6.03;5.97;6.01;19859124
6.0;6.01;5.88;5.93;12682572
5.88;5.89;5.761;5.78;20610775
5.87;5.9;5.785;5.89;13567139
5.98;6.115;5.97;6.1;21312598
6.2;6.24;6.17;6.19;11854970
6.2;6.29;6.18;6.27;15803752
6.27;6.35;6.23;6.35;12256363
6.33;6.41;6.3149;6.35;12547094
6.36;6.41;6.35;6.38;11567929
6.26;6.37;6.22;6.3;26716877
6.2;6.27;6.18;6.26;10522051
6.23;6.27;6.18;6.24;8481075
6.2;6.24;6.17;6.19;8511908
6.23;6.25;6.18;6.2;9290051
6.22;6.25;6.1948;6.24;6046217
6.18;6.25;6.17;6.2;8294288
6.04;6.1;6.03;6.09;11520724
6.1;6.13;6.05;6.09;8673123
6.0;6.14;5.99;6.14;19288940
5.87;5.98;5.86;5.95;32514152
5.95;6.0;5.901;5.97;18310665
5.8;5.8372;5.74;5.79;20110714
5.85;5.86;5.81;5.85;12903717
5.93;5.96;5.91;5.93;11761665
5.93;5.95;5.885;5.9;12669683
5.85;5.91;5.84;5.89;12227678
5.86;5.89;5.81;5.84;10623031
5.86;5.88;5.81;5.84;7495599
5.84;5.93;5.83;5.9;8054726
5.9;5.97;5.89;5.93;10266694
6.01;6.12;6.0;6.08;17028883
6.12;6.14;6.1;6.11;10406871
6.11;6.12;6.07;6.12;11341059
5.98;6.08;5.96;6.06;15349978
5.94;5.98;5.9;5.96;23450547
5.96;6.01;5.93;5.97;20032801
5.94;5.94;5.87;5.91;16293999
5.96;5.98;5.87;5.95;14082938
5.88;5.88;5.76;5.83;18172303
5.83;5.85;5.795;5.83;16130411
5.84;5.88;5.73;5.73;18466947
5.64;5.74;5.62;5.71;16003707
5.76;5.81;5.75;5.75;9961302
5.62;5.67;5.61;5.65;12536679
5.67;5.71;5.6436;5.68;8570561
5.69;5.74;5.665;5.73;11288309
5.76;5.79;5.74;5.76;16111083
5.85;5.87;5.8001;5.85;14221347
5.93;5.97;5.91;5.95;9709481
5.88;5.91;5.83;5.84;12723523
5.83;5.92;5.83;5.9;14318333
5.86;5.88;5.8;5.81;14247033
5.87;5.9;5.84;5.88;10086456
5.8;5.84;5.79;5.81;7242221
6.07;6.09;6.0;6.04;28867113
5.98;5.99;5.93;5.96;16459974
5.98;6.01;5.96;5.97;12249909
5.96;5.97;5.92;5.94;12864424
5.95;5.97;5.85;5.9;17437054
5.95;5.99;5.895;5.98;20655756
5.64;5.66;5.53;5.55;62187855
5.53;5.53;5.39;5.4;31220048
5.55;5.59;5.47;5.5;27356793
5.49;5.5;5.4;5.4;17331080
5.46;5.47;5.4;5.43;14750582
5.35;5.38;5.32;5.37;15197394
5.35;5.38;5.34;5.36;7753071
5.35;5.38;5.32;5.32;12103180
5.4;5.43;5.36;5.39;14359590
5.42;5.425;5.38;5.39;8013300
5.38;5.4;5.35;5.36;7033732
5.24;5.26;5.2;5.22;10930310
5.21;5.22;5.18;5.19;4264601
5.2;5.22;5.16;5.2;7491066
5.14;5.15;5.07;5.09;12773123
5.16;5.199;5.13;5.15;9123261
5.2;5.24;5.18;5.23;12162602
5.27;5.29;5.24;5.25;11653268
5.33;5.36;5.315;5.36;9848905
5.43;5.4489;5.38;5.41;9434103
5.48;5.49;5.42;5.43;8697858
5.52;5.58;5.51;5.58;10080278
5.64;5.74;5.64;5.71;9114974
5.77;5.78;5.71;5.73;10009049
5.68;5.72;5.66;5.71;6502744
5.62;5.65;5.6;5.62;6645807
5.58;5.6;5.525;5.55;5493915
5.48;5.52;5.47;5.51;7070808
5.44;5.45;5.36;5.4;11584042
5.44;5.46;5.37;5.39;6491664
5.34;5.3807;5.32;5.32;14145051
5.43;5.44;5.37;5.39;6895501
5.35;5.37;5.32;5.36;4148347
5.3;5.34;5.27;5.31;7815598
5.54;5.57;5.44;5.47;10956405
5.5;5.5363;5.45;5.5;8821511
5.5;5.54;5.47;5.5;8851126
5.58;5.65;5.575;5.62;10827544
5.39;5.49;5.39;5.46;15308787
5.5;5.53;5.46;5.52;13580087
5.56;5.61;5.53;5.59;15735196
5.55;5.58;5.51;5.55;5937130
5.54;5.62;5.54;5.6;13038881
5.55;5.6;5.525;5.53;7410244
5.58;5.7;5.575;5.69;18776732
5.56;5.6062;5.55;5.58;15810909
5.6;5.65;5.59;5.61;17033419
5.5;5.53;5.46;5.48;19791349
5.54;5.54;5.46;5.47;15512837
5.5;5.545;5.46;5.48;10248980
5.41;5.43;5.33;5.38;7560264
5.33;5.37;5.26;5.32;11679022
5.31;5.34;5.26;5.3;12101927
5.25;5.25;5.15;5.16;21285375
5.21;5.25;5.12;5.15;19255436
5.25;5.26;5.17;5.25;13415844
5.28;5.31;5.24;5.29;9823460
5.42;5.47;5.41;5.45;15975694
5.46;5.58;5.42;5.52;17744914
5.57;5.65;5.54;5.55;24359643
5.61;5.66;5.58;5.62;17885353
5.62;5.657;5.5729;5.63;17496032
5.54;5.585;5.44;5.55;24747255
5.44;5.45;5.24;5.26;29459830
5.31;5.42;5.27;5.32;23972304
5.53;5.655;5.48;5.58;46115592
5.62;5.64;5.5;5.55;19946701
5.51;5.64;5.49;5.63;18164496
5.66;5.72;5.62;5.62;22823019
5.73;5.79;5.7;5.78;26007617
5.84;5.87;5.77;5.8;20944069
5.85;5.88;5.81;5.86;12499666
5.85;5.88;5.82;5.86;10467146
5.99;5.99;5.93;5.98;17499975
5.94;5.97;5.89;5.93;12834963
5.9;5.91;5.82;5.87;11833202
5.81;5.83;5.74;5.75;11955787
5.79;5.89;5.77;5.85;16321776
5.87;5.88;5.78;5.79;13067375
5.68;5.77;5.65;5.76;19929976
5.83;5.85;5.7828;5.81;17427496
5.81;5.83;5.72;5.72;13216003
5.53;5.6077;5.48;5.51;23450210
5.59;5.6;5.51;5.53;13066092
5.47;5.51;5.46;5.49;10311845
5.54;5.56;5.49;5.5;8863022
5.51;5.52;5.44;5.47;10277353
5.47;5.5;5.39;5.48;20396878
5.5;5.55;5.48;5.52;17630037
5.48;5.52;5.455;5.47;12123342
5.63;5.64;5.57;5.6;14241608
5.55;5.57;5.39;5.4;19372446
5.39;5.64;5.37;5.62;32126433
5.61;5.66;5.52;5.53;23097432
5.6;5.71;5.6;5.68;34543270
5.82;5.87;5.79;5.84;46730767
5.95;6.06;5.93;6.04;48348542
5.98;6.05;5.97;6.03;31790966
5.91;6.01;5.89;5.94;17796510
5.94;5.95;5.85;5.87;26578124
5.88;5.9;5.76;5.78;19722411
5.83;5.9;5.74;5.77;19185136
5.82;5.85;5.66;5.76;28858800
5.71;5.745;5.48;5.49;29856841
5.49;5.53;5.455;5.49;18967028
5.51;5.56;5.415;5.56;36014120
5.52;5.64;5.47;5.63;22782645
5.69;5.83;5.6651;5.81;33354476
5.83;5.85;5.77;5.82;14979863
5.7;5.77;5.69;5.74;24338555
5.64;5.65;5.56;5.57;17354460
5.73;5.96;5.73;5.93;34666303
5.95;6.09;5.93;6.02;25502597
6.07;6.16;6.03;6.15;33497459
6.16;6.24;6.135;6.21;25471554
6.11;6.18;6.09;6.14;21832937
6.06;6.095;6.03;6.08;14824244
6.03;6.07;6.0;6.02;15287809
6.0;6.08;6.0;6.05;14197259
5.96;6.0;5.9;5.95;24161849
5.96;6.0;5.94;5.98;19734151
6.11;6.125;6.04;6.11;22432561
6.0;6.04;5.95;5.97;17110759
6.06;6.12;6.01;6.05;14700449
6.15;6.2;6.09;6.16;29669884
6.38;6.64;6.37;6.6;58827131
6.48;6.51;6.415;6.49;36912246
6.51;6.6;6.475;6.55;34649074
6.5;6.65;6.4548;6.57;34552790
6.36;6.4;6.21;6.35;71227865
6.26;6.26;6.09;6.13;45701742
6.115;6.12;5.98;6.06;33474685
6.05;6.09;6.02;6.04;27216197
6.08;6.11;6.04;6.05;23623984
6.02;6.03;5.95;5.96;39599474
5.96;6.185;5.96;6.16;37475121
6.19;6.23;6.13;6.21;23293409
6.21;6.26;6.15;6.24;29400721
6.27;6.35;6.26;6.32;18786093
6.31;6.34;6.27;6.3;18292770
6.3;6.33;6.26;6.32;20775697
6.13;6.19;6.12;6.17;22651450
6.05;6.12;6.03;6.1;22922802
6.1;6.17;6.09;6.15;25795964
6.15;6.25;6.14;6.24;26931618
6.28;6.28;6.11;6.15;32257722
6.15;6.2;6.11;6.12;27324438
6.15;6.15;6.07;6.12;22102948
6.1;6.13;6.07;6.09;26216826
6.12;6.17;6.08;6.11;24788157
6.13;6.14;6.03;6.08;26505793
6.09;6.19;6.09;6.16;18794966
6.12;6.13;6.06;6.1;21097470
6.07;6.08;6.02;6.03;17579385
5.96;6.085;5.95;6.07;28689413
6.05;6.17;6.04;6.14;26335783
6.18;6.245;6.15;6.2;20990541
6.15;6.18;6.13;6.14;16889805
6.17;6.25;6.15;6.22;18598029
6.34;6.42;6.31;6.39;22230202
6.37;6.38;6.31;6.33;20221132
6.38;6.41;6.32;6.35;23996059
6.29;6.325;6.21;6.29;23309755
6.26;6.34;6.24;6.26;31097560
5.94;6.02;5.76;5.88;95614695
5.93;5.95;5.83;5.87;34181207
5.86;5.87;5.8;5.82;23046806
5.81;5.86;5.78;5.82;24587120
5.72;5.74;5.66;5.69;40834056
5.74;5.76;5.69;5.72;23922324
5.78;5.8;5.75;5.77;18024878
5.83;5.85;5.77;5.81;16224268
5.92;5.96;5.89;5.9;21194930
5.95;5.96;5.88;5.9;17011020
5.93;5.94;5.91;5.92;9515579
5.94;5.96;5.9;5.96;10652709
5.89;5.9167;5.85;5.86;14416557
5.86;5.89;5.84;5.85;13641258
5.86;5.9;5.84;5.87;12022889
5.9;5.96;5.88;5.94;16105117
5.73;5.73;5.63;5.64;39245549
5.68;5.72;5.66;5.68;21111590
5.76;5.87;5.75;5.82;26628090
5.8;5.84;5.77;5.81;13496864
5.84;5.84;5.775;5.81;11826147
5.77;5.81;5.75;5.8;15914666
5.81;5.837;5.76;5.79;23394905
5.34;5.3531;5.2;5.3;72436330
5.34;5.45;5.33;5.36;27525212
5.36;5.37;5.3;5.32;24526245
5.24;5.33;5.23;5.28;29843785
5.31;5.34;5.22;5.22;24970504
5.21;5.22;5.15;5.19;29368643
5.14;5.21;5.13;5.18;28702900
5.06;5.16;5.05;5.14;28199208
5.07;5.1;4.98;5.04;39943419
4.99;5.04;4.98;4.98;22076165
4.92;4.97;4.9;4.95;29449827
4.91;4.96;4.86;4.93;22776494
4.83;4.86;4.8;4.82;23964625
4.83;4.85;4.76;4.77;32932834
4.72;4.8;4.71;4.77;21222096
4.9;5.0;4.89;4.96;75182311
4.95;5.02;4.925;4.94;34831418
5.07;5.12;5.0035;5.08;42968065
5.17;5.17;5.09;5.1;24851214
5.11;5.16;5.1;5.13;20785629
4.98;5.0;4.95;4.97;17333322
5.12;5.15;5.035;5.12;22388980
5.08;5.11;5.0;5.01;19535737
4.94;5.05;4.93;5.04;23746103
5.04;5.15;5.03;5.09;24526583
5.02;5.075;4.995;5.05;16180097
5.0;5.04;4.96;4.99;24869049
5.065;5.09;5.025;5.03;22725469
5.07;5.07;4.99;5.05;15803245
5.03;5.05;5.0;5.02;15510559
5.05;5.1;5.035;5.08;16325957
5.05;5.07;4.96;4.98;25758078
5.11;5.19;5.0935;5.16;26815885
5.12;5.13;5.08;5.1;12966949
5.1;5.1;5.04;5.08;13706818
4.98;5.0;4.95;4.95;17647519
4.99;5.02;4.96;4.97;12548775
5.04;5.06;4.99;5.01;15336509
5.06;5.07;5.01;5.04;12689699
5.13;5.19;5.11;5.17;17136680
5.13;5.18;5.12;5.16;12868167
5.09;5.1;5.04;5.04;19801394
5.01;5.08;4.99;4.99;23153804
5.05;5.07;5.01;5.02;14289139
5.01;5.02;4.935;4.97;30968297
5.01;5.03;4.99;5.01;14905745
5.04;5.04;5.0;5.03;15254757
5.05;5.07;5.03;5.06;13204702
5.1;5.12;5.09;5.12;7821391
5.09;5.09;5.02;5.06;8113798
5.02;5.055;5.01;5.04;9045664
5.01;5.045;4.98;5.03;16437932
5.06;5.08;5.035;5.06;11442084
5.08;5.1;5.05;5.06;22504326
5.09;5.1;5.06;5.1;20398405
5.11;5.12;5.07;5.1;18689312
5.15;5.21;5.11;5.12;19076963
5.11;5.2;5.1;5.16;41825343
5.16;5.18;5.1;5.14;26897205
5.16;5.2;5.13;5.14;28212370
5.17;5.18;5.11;5.12;27725111
5.17;5.18;5.13;5.17;14465434
5.2;5.22;5.13;5.18;18065497
5.55;5.77;5.51;5.7;92429510
5.69;5.74;5.63;5.72;38025600
5.66;5.69;5.61;5.65;19818539
5.55;5.57;5.45;5.47;40569068
5.47;5.5;5.37;5.41;17820392
5.43;5.5;5.35;5.37;22983193
5.4;5.42;5.33;5.4;17603766
5.33;5.35;5.25;5.29;18350899
5.36;5.38;5.32;5.35;19943279
5.26;5.33;5.23;5.32;26352324
5.38;5.42;5.38;5.4;13819047
5.4;5.45;5.36;5.41;22235273
5.26;5.37;5.25;5.31;12304709
5.26;5.385;5.25;5.33;20182191
5.22;5.22;5.11;5.12;25831946
5.07;5.1;5.03;5.06;18896340
5.13;5.17;5.1;5.17;11737126
5.25;5.25;5.21;5.23;8695622
5.17;5.19;5.14;5.15;10449119
5.2;5.21;5.16;5.17;7978491
5.15;5.18;5.05;5.07;26019723
5.05;5.1;5.0;5.01;24543919
5.02;5.03;4.98;5.0;10258458
5.01;5.02;4.91;4.94;19467706
4.87;4.93;4.86;4.89;17066477
4.9;4.95;4.9;4.92;11567154
4.97;4.98;4.94;4.96;9927839
4.89;4.9163;4.835;4.87;19580275
4.91;4.93;4.9;4.91;9919990
4.98;5.0;4.95;4.97;14573256
5.01;5.05;4.98;5.01;11933644
5.03;5.03;4.99;5.02;11863662
5.03;5.12;5.0;5.1;18800603
5.07;5.12;5.05;5.1;15379454
5.14;5.2498;5.13;5.24;18786439
5.23;5.23;5.16;5.18;8965024
5.1;5.14;5.08;5.12;13017597
5.06;5.165;5.05;5.15;18211554
5.13;5.17;5.12;5.14;11702917
5.22;5.25;5.15;5.15;14190190
5.25;5.325;5.25;5.29;23973960
5.16;5.18;5.14;5.18;17477351
5.15;5.16;5.09;5.1;25987221
5.05;5.08;5.01;5.07;15818161
5.05;5.05;4.97;4.99;16000079
5.05;5.09;4.99;5.04;20225411
5.06;5.1057;5.03;5.06;16060831
5.06;5.06;4.87;4.91;54158441
4.87;4.87;4.8;4.82;31343402
4.81;4.87;4.75;4.84;23309768
4.87;4.89;4.84;4.89;13613278
4.9;4.96;4.89;4.91;14043106
4.95;4.96;4.88;4.9;14813587
4.94;4.94;4.89;4.91;19157797
4.96;4.98;4.9;4.94;26257222
5.11;5.12;5.0;5.02;30407777
5.01;5.03;4.95;4.95;26581204
4.99;5.05;4.98;5.01;17331996
5.08;5.1;5.04;5.09;17214573
5.28;5.28;5.15;5.23;36383233
5.23;5.235;5.17;5.2;34749606
5.25;5.27;5.18;5.2;18430039
5.23;5.24;5.18;5.18;18218010
5.23;5.24;5.1;5.11;35040351
4.02;4.09;3.83;3.9;251674101
3.83;3.85;3.75;3.78;83786693
3.68;3.7;3.58;3.59;82241675
3.53;3.62;3.5;3.55;59696363
3.57;3.65;3.56;3.65;53804497
3.67;3.68;3.63;3.65;34401250
3.64;3.7;3.63;3.66;29752383
3.62;3.65;3.6;3.61;24436191
3.54;3.57;3.51;3.54;38602276
3.59;3.64;3.54;3.59;41319930
3.58;3.61;3.54;3.57;25686956
3.56;3.575;3.52;3.57;20839906
3.5;3.57;3.5;3.53;39836067
3.51;3.53;3.485;3.51;25819055
3.48;3.5;3.45;3.47;23875661
3.38;3.4;3.33;3.37;37161774
3.39;3.47;3.38;3.45;28505741
3.44;3.49;3.44;3.45;29079389
3.47;3.47;3.41;3.43;30007303
3.38;3.3993;3.35;3.35;18573336
3.39;3.4;3.36;3.38;20475574
3.4;3.46;3.395;3.43;16678585
3.49;3.505;3.44;3.47;20530017
3.455;3.46;3.41;3.43;20521744
3.43;3.48;3.41;3.46;16381167
3.48;3.51;3.47;3.5;7059913
3.53;3.54;3.43;3.46;23666722
3.5;3.51;3.44;3.47;24842184
3.49;3.53;3.43;3.45;33259420
3.45;3.51;3.44;3.48;17155177
3.48;3.51;3.45;3.48;15834222
3.43;3.45;3.41;3.42;15847415
3.43;3.45;3.41;3.42;17618627
3.45;3.47;3.44;3.47;11935899
3.5;3.58;3.495;3.57;23182810
3.58;3.62;3.52;3.52;20460831
3.58;3.6;3.56;3.59;13094823
3.63;3.63;3.6;3.6;17663186
3.61;3.62;3.58;3.6;16109582
3.61;3.63;3.57;3.59;16346720
3.6;3.61;3.57;3.61;21924555
3.61;3.64;3.59;3.64;16361947
3.62;3.64;3.61;3.63;6768314
3.63;3.64;3.62;3.62;9057322
3.61;3.63;3.61;3.63;9345097
3.65;3.72;3.63;3.69;27046772
3.7;3.73;3.69;3.71;14351477
3.84;3.89;3.82;3.87;33141970
3.83;3.865;3.81;3.81;25022658
3.83;3.99;3.82;3.94;59952233
3.96;4.01;3.94;3.95;36841781
4.02;4.05;4.01;4.02;32114596
4.07;4.08;4.0;4.01;25074067
4.04;4.07;4.02;4.02;21251233
4.1;4.11;4.05;4.06;29873057
4.02;4.04;3.99;4.01;23334116
4.01;4.1;4.0;4.06;21152705
4.13;4.24;4.13;4.2;30481254
4.21;4.22;4.12;4.14;28399564
4.16;4.17;4.09;4.13;21274948
4.1;4.14;4.09;4.09;19525831
4.06;4.08;4.02;4.06;27092078
4.09;4.09;4.0;4.05;29042751
3.94;3.98;3.9;3.94;31964384
3.99;4.07;3.98;4.02;23543503
4.0;4.02;3.9;3.91;27741422
3.88;3.96;3.87;3.96;23305229
3.92;3.92;3.86;3.88;25612127
3.93;3.935;3.86;3.88;31627824
3.92;3.98;3.89;3.96;29709894
4.01;4.03;3.94;4.03;27448427
4.01;4.22;3.95;4.2;90257751
4.28;4.42;4.26;4.37;102719682
4.29;4.31;4.17;4.26;63116677
4.43;4.53;4.38;4.41;82755562
4.43;4.49;4.39;4.41;34736884
4.34;4.4;4.32;4.34;30693461
4.31;4.33;4.28;4.33;23030758
4.24;4.25;4.21;4.25;22440174
4.23;4.25;4.2;4.2;26638555
4.18;4.19;4.1;4.16;25590372
4.14;4.18;4.11;4.16;21122889
4.01;4.07;4.0;4.02;35855121
4.04;4.04;3.9;3.91;35960648
3.99;4.43;3.95;4.15;93312030
4.01;4.115;3.94;3.96;62126701
3.845;3.89;3.78;3.87;58540332
3.91;3.96;3.85;3.93;41572097
3.92;3.96;3.73;3.79;45558094
3.84;3.86;3.77;3.86;23839590
3.755;3.79;3.66;3.66;35255438
3.62;3.66;3.51;3.57;39638337
3.34;3.45;3.3;3.31;54609286
3.39;3.4;3.21;3.32;42384203
3.24;3.26;3.07;3.13;41335544
2.84;2.93;2.61;2.61;51754581
2.82;2.83;2.54;2.74;31675102
2.38;2.54;2.38;2.42;27259527
2.56;2.62;2.46;2.53;29468848
2.51;2.62;2.34;2.43;42501293
2.42;2.62;2.38;2.56;40297739
2.68;2.8;2.6;2.66;49575219
2.73;2.8;2.62;2.65;46726693
2.91;2.99;2.86;2.94;47526082
2.99;3.15;2.9;3.07;48724406
3.05;3.19;3.05;3.15;35238500
3.02;3.08;2.94;3.01;31098789
2.98;3.06;2.95;3.05;20464501
3.09;3.1999;3.065;3.1;29417566
3.04;3.07;2.97;2.97;22136792
2.99;3.08;2.95;3.04;23224722
2.99;3.02;2.94;2.97;17041702
3.13;3.19;3.1;3.16;23284557
3.25;3.28;3.15;3.16;27185871
3.21;3.28;3.18;3.24;18400661
3.27;3.34;3.24;3.27;20956233
3.26;3.27;3.2;3.25;11758444
3.35;3.43;3.345;3.37;27570972
3.25;3.26;3.17;3.23;23708870
3.22;3.6796;3.14;3.46;83467874
3.52;3.56;3.44;3.48;34633125
3.45;3.52;3.42;3.44;16577499
3.44;3.45;3.34;3.36;22449461
3.4;3.43;3.35;3.38;18071958
3.37;3.45;3.36;3.39;23344676
3.4;3.41;3.31;3.39;16388560
3.41;3.46;3.4;3.46;12403717
3.48;3.49;3.39;3.41;26159500
3.49;3.55;3.42;3.51;22155567
3.69;3.7;3.56;3.58;55906505
3.53;3.63;3.455;3.6;32805513
3.56;3.59;3.5;3.55;23352937
3.49;3.54;3.46;3.46;20014670
3.56;3.565;3.46;3.46;19892258
3.55;3.58;3.52;3.55;14407297
3.56;3.59;3.54;3.58;17426307
3.58;3.59;3.55;3.57;14345988
3.6;3.63;3.56;3.57;16924284
3.57;3.58;3.4;3.44;27715808
3.34;3.42;3.28;3.42;24552470
3.46;3.49;3.41;3.45;15698764
3.58;3.69;3.5699;3.65;25662069
3.66;3.74;3.65;3.69;21212762
3.74;3.83;3.73;3.82;22489460
3.88;3.89;3.76;3.77;20947676
3.8;3.86;3.78;3.85;18401454
3.9;3.92;3.85;3.85;17393962
3.91;3.925;3.83;3.91;25093150
3.94;3.98;3.91;3.92;22196979
3.96;3.98;3.9;3.95;21067361
4.14;4.225;4.12;4.2;39542103
4.27;4.34;4.26;4.31;36621473
4.32;4.4;4.31;4.37;32103072
4.33;4.38;4.28;4.28;38453740
4.44;4.5;4.41;4.46;33115866
4.52;4.54;4.47;4.52;38203516
4.51;4.51;4.39;4.42;35176850
4.45;4.51;4.41;4.45;34982306
4.31;4.32;4.07;4.11;49802321
4.28;4.31;4.11;4.2;38508117
4.15;4.29;4.1;4.28;39958260
4.4;4.43;4.3;4.34;36960910
4.42;4.44;4.38;4.41;31784537
4.39;4.41;4.35;4.37;26224120
4.42;4.42;4.3;4.33;21062224
4.31;4.37;4.29;4.33;20886705
4.39;4.41;4.33;4.33;20228602
4.31;4.32;4.17;4.2;36423147
4.18;4.45;4.15;4.45;43493918
4.42;4.44;4.33;4.34;40939647
4.36;4.407;4.31;4.35;30304159
4.3;4.41;4.295;4.4;21533680
4.36;4.41;4.34;4.35;24728819
4.43;4.5;4.425;4.44;26431196
4.63;4.75;4.59;4.6;56522998
4.57;4.58;4.3;4.31;59104940
4.16;4.21;4.11;4.15;56456497
4.14;4.21;4.06;4.17;37914519
4.11;4.16;4.09;4.12;25485082
4.24;4.31;4.18;4.18;37504704
4.24;4.33;4.24;4.32;38866960
4.39;4.4;4.28;4.33;29809679
4.27;4.29;4.23;4.24;21948722
4.36;4.47;4.34;4.39;50122214
4.4;4.48;4.4;4.45;30552930
4.51;4.52;4.43;4.43;26461380
4.47;4.55;4.45;4.5;23368030
4.48;4.49;4.3;4.37;35977321
4.34;4.36;4.29;4.3;22774410
4.33;4.37;4.32;4.34;21065909
4.31;4.33;4.26;4.28;19863419
4.31;4.36;4.3026;4.34;15453397
4.22;4.53;4.16;4.45;58415891
4.86;4.95;4.635;4.78;117959817
4.96;5.13;4.9401;5.06;62489164
5.04;5.14;5.01;5.1;42735128
5.07;5.1;4.99;5.0;36336472
4.97;5.01;4.95;5.0;30262580
4.95;4.99;4.93;4.98;21405341
4.96;4.97;4.88;4.91;21177600
4.95;5.05;4.92;4.96;40259299
5.06;5.08;5.01;5.05;21697774
5.03;5.08;5.0;5.06;21989476
5.01;5.02;4.97;5.0;18991855
5.04;5.09;5.01;5.07;24050162
5.13;5.14;5.03;5.09;18338065
5.1;5.11;5.015;5.04;20351206
4.99;5.06;4.99;5.05;15366376
4.94;5.0;4.94;4.97;15015135
5.055;5.055;5.0;5.03;12604414
5.06;5.075;5.0;5.04;13587397
5.05;5.07;5.02;5.05;19752385
5.02;5.05;4.96;5.01;25348574
4.99;5.02;4.93;4.97;20820157
4.94;4.94;4.86;4.9;22437841
4.85;4.85;4.68;4.73;49278975
4.75;4.82;4.7;4.78;31895627
4.71;4.71;4.47;4.53;63168166
4.52;4.54;4.36;4.48;45584048
4.195;4.25;4.1;4.1;67144062
4.19;4.22;4.13;4.14;47162653
4.19;4.195;4.08;4.1;35018315
4.13;4.15;4.06;4.1;27316148
4.14;4.15;4.07;4.09;21317994
4.2;4.2;4.13;4.16;24076236
4.18;4.18;4.11;4.13;30884964
4.08;4.15;4.07;4.14;28414554
4.1;4.145;4.04;4.09;20339371
3.95;3.97;3.88;3.96;29189482
3.96;3.99;3.9;3.98;15175316
3.97;3.98;3.87;3.88;19322558
3.85;3.88;3.81;3.84;19266868
3.775;3.79;3.72;3.78;32637615
3.85;3.94;3.83;3.9;28025479
3.96;4.04;3.93;3.95;25068342
3.945;3.98;3.9;3.91;24780794
3.91;3.915;3.84;3.87;17027990
3.8;3.86;3.8;3.82;19307665
3.95;3.96;3.88;3.93;15811376
3.98;4.0;3.87;3.91;23824323
3.9;3.92;3.86;3.9;15216504
3.9;3.98;3.89;3.95;19386159
4.07;4.13;4.02;4.03;35552878
4.05;4.06;4.01;4.03;18341227
4.07;4.08;4.01;4.04;19771400
4.05;4.1;4.03;4.08;20988920
3.985;4.04;3.975;4.04;15456560
4.04;4.07;4.02;4.03;13354960
4.13;4.23;4.12;4.18;36642481
4.28;4.28;4.17;4.2;39536930
4.27;4.34;4.22;4.28;43146649
4.3;4.3;4.19;4.27;33773224
4.25;4.31;4.22;4.3;15898786
4.3;4.31;4.18;4.23;34590512
4.21;4.28;4.21;4.24;24062183
4.05;4.09;4.0;4.05;47238647
3.44;3.45;3.21;3.35;149132957
3.38;3.39;3.32;3.37;65899431
3.38;3.38;3.23;3.27;41682324
3.31;3.47;3.3;3.39;52419275
3.41;3.47;3.362;3.4;38149457
3.51;3.61;3.5;3.54;43167613
3.51;3.55;3.46;3.52;29258041
3.78;3.79;3.62;3.65;49820925
3.74;3.755;3.67;3.67;37387851
3.68;3.78;3.66;3.75;40456023
3.75;3.82;3.722;3.75;46795312
3.74;3.86;3.74;3.81;46308247
3.87;3.93;3.84;3.9;37591796
3.87;3.95;3.85;3.93;27364148
3.94;3.98;3.93;3.94;28103602
3.86;3.91;3.84;3.89;30776721
3.9;3.97;3.89;3.95;29376690
3.93;3.98;3.92;3.97;32393647
4.03;4.12;4.01;4.07;25395293
4.09;4.14;4.08;4.13;16995786
4.12;4.14;4.11;4.13;8288343
4.08;4.11;4.02;4.03;20845221
4.06;4.09;4.05;4.06;20169266
3.99;4.06;3.97;4.06;23692288
4.03;4.06;4.01;4.02;18883638
4.02;4.03;3.99;4.03;19651545
4.04;4.1;4.03;4.06;21546521
4.1;4.23;4.1;4.22;35820041
4.24;4.28;4.18;4.19;31808830
4.13;4.22;4.12;4.2;27951048
4.07;4.1;4.0;4.06;34215647
4.05;4.07;3.98;4.0;21093175
4.06;4.12;4.03;4.1;18757009
4.01;4.03;3.98;3.99;19877690
4.09;4.0916;4.02;4.06;26082195
4.04;4.06;3.98;4.0;20259706
3.87;3.9188;3.83;3.9;26116616
3.87;3.9;3.84;3.88;25180444
3.85;3.92;3.85;3.88;27033451
3.9;3.92;3.89;3.89;7298750
3.9;3.94;3.89;3.9;18694713
3.95;3.98;3.93;3.93;19875440
3.94;3.96;3.88;3.89;17464606
3.88;3.93;3.87;3.91;17088862
